
{
    "development": {
        "database": {
            "dbName": "share-point",
            "dbHost": "localhost",
            "dbPort": "27017"
        },
        "port": 5000,
        "secret": "../../../../Downloads/AWS.pem"
    },
    "production": {
        "database": {
            "dbName": "share-point",
            "dbHost": "localhost",
            "dbPort": "27017"
        },
        "port": 5000,
        "secret": "../../../../Downloads/AWS.pem"
    }
}